id,stores,title,main_image,detail_images,categories,body
product1,store1,CatTask multilingual enterprise website building system,images/product/1.png,images/product/product_detail_1.png|images/product/product_detail_2.png,product_category1,"<p>Amazing website building tool.</p>
                    <div class=""project_details_widget"">
                        <div class=""single_project_details_widget"">
                            <span class=""ti-time""></span>
                            <h5>Published Time</h5>
                            <p>09:00 AM</p>
                            <h6>Friday, Mar 10, 2019</h6>
                        </div>
                        <div class=""single_project_details_widget"">
                            <span class=""ti-check-box""></span>
                            <h5>Features</h5>
                            <p>Multilingual support</p>
                            <p>E-Commerce ready</p>
                            <p>SEO friendly</p>
                            <h6>Wysiwyg edit interface</h6>
                            <p>SCSS source included</p>
                        </div>
                        <div class=""single_project_details_widget"">
                            <span class=""ti-location-pin""></span>
                            <h5>Last release</h5>
                            <p>Friday, Mar 10, 2019</p>
                            <h6>v2.5.1</h6>
                        </div>
                    </div>"
product2,store1,CatTask multilingual enterprise website building system,images/product/1.png,images/product/product_detail_1.png|images/product/product_detail_2.png,product_category1,<p>Amazing website building tool.</p>
product3,store1,CatTask multilingual enterprise website building system,images/product/1.png,images/product/product_detail_1.png|images/product/product_detail_2.png,product_category1,<p>Amazing website building tool.</p>
product4,store1,CatTask multilingual enterprise website building system,images/product/1.png,images/product/product_detail_1.png|images/product/product_detail_2.png,product_category1,<p>Amazing website building tool.</p>
product5,store1,CatTask multilingual enterprise website building system,images/product/1.png,images/product/product_detail_1.png|images/product/product_detail_2.png,product_category1,<p>Amazing website building tool.</p>
product6,store1,CatTask multilingual enterprise website building system,images/product/1.png,images/product/product_detail_1.png|images/product/product_detail_2.png,product_category1,<p>Amazing website building tool.</p>
product7,store1,CatTask multilingual enterprise website building system,images/product/1.png,images/product/product_detail_1.png|images/product/product_detail_2.png,product_category1,<p>Amazing website building tool.</p>
product8,store1,CatTask multilingual enterprise website building system,images/product/1.png,images/product/product_detail_1.png|images/product/product_detail_2.png,product_category1,<p>Amazing website building tool.</p>
product9,store1,CatTask multilingual enterprise website building system,images/product/1.png,images/product/product_detail_1.png|images/product/product_detail_2.png,product_category1,<p>Amazing website building tool.</p>
product10,store1,CatTask multilingual enterprise website building system,images/product/1.png,images/product/product_detail_1.png|images/product/product_detail_2.png,product_category1,<p>Amazing website building tool.</p>
product11,store1,CatTask multilingual enterprise website building system,images/product/1.png,images/product/product_detail_1.png|images/product/product_detail_2.png,product_category1,<p>Amazing website building tool.</p>
product12,store1,CatTask multilingual enterprise website building system,images/product/1.png,images/product/product_detail_1.png|images/product/product_detail_2.png,product_category1,<p>Amazing website building tool.</p>
product13,store1,CatTask multilingual enterprise website building system,images/product/1.png,images/product/product_detail_1.png|images/product/product_detail_2.png,product_category1,<p>Amazing website building tool.</p>
product14,store1,CatTask multilingual enterprise website building system,images/product/1.png,images/product/product_detail_1.png|images/product/product_detail_2.png,product_category1,<p>Amazing website building tool.</p>
product15,store1,CatTask multilingual enterprise website building system,images/product/1.png,images/product/product_detail_1.png|images/product/product_detail_2.png,product_category1,<p>Amazing website building tool.</p>
product16,store1,CatTask multilingual enterprise website building system,images/product/1.png,images/product/product_detail_1.png|images/product/product_detail_2.png,product_category1,<p>Amazing website building tool.</p>
product17,store1,CatTask multilingual enterprise website building system,images/product/1.png,images/product/product_detail_1.png|images/product/product_detail_2.png,product_category1,<p>Amazing website building tool.</p>
product18,store1,CatTask multilingual enterprise website building system,images/product/1.png,images/product/product_detail_1.png|images/product/product_detail_2.png,product_category1,<p>Amazing website building tool.</p>
product19,store1,CatTask multilingual enterprise website building system,images/product/1.png,images/product/product_detail_1.png|images/product/product_detail_2.png,product_category1,<p>Amazing website building tool.</p>
product20,store1,CatTask multilingual enterprise website building system,images/product/1.png,images/product/product_detail_1.png|images/product/product_detail_2.png,product_category1,<p>Amazing website building tool.</p>
product21,store1,CatTask multilingual enterprise website building system,images/product/1.png,images/product/product_detail_1.png|images/product/product_detail_2.png,product_category1,<p>Amazing website building tool.</p>
