id,name,position_title,social_networks
team1_member1,约瑟夫·威廉姆斯,Web 研发工程师,https://www.facebook.com>脸书|https://www.twitter.com>推特|https://www.weibo.com>微博
team1_member2,丹尼尔·汉考克,Web 研发工程师,https://www.facebook.com>脸书|https://www.twitter.com>推特|https://www.weibo.com>微博
team1_member3,伯纳德·佩雷斯,Web 研发工程师,https://www.facebook.com>脸书|https://www.twitter.com>推特|https://www.weibo.com>微博
